2,manager marketing,,,$2y$10$tEinh6ZtHUfxbON0SkquUeadH2pop4eHNAihCi7FwcWBAW5lF/v6S,,,,mkt_manager,1,t,t
3,admin marketing,,,$2y$10$tEinh6ZtHUfxbON0SkquUeadH2pop4eHNAihCi7FwcWBAW5lF/v6S,,,,adm_mkt1,2,t,t
4,manager produksi,,,$2y$10$tEinh6ZtHUfxbON0SkquUeadH2pop4eHNAihCi7FwcWBAW5lF/v6S,,,,prod_manager,3,t,t
14,direktur,,,$2y$10$tEinh6ZtHUfxbON0SkquUeadH2pop4eHNAihCi7FwcWBAW5lF/v6S,,,,direktur,0,t,t
15,admin produksi,,,$2y$10$tEinh6ZtHUfxbON0SkquUeadH2pop4eHNAihCi7FwcWBAW5lF/v6S,,,,adm_prod,13,t,t
6,admin ppc,,,$2y$10$tEinh6ZtHUfxbON0SkquUeadH2pop4eHNAihCi7FwcWBAW5lF/v6S,,,,adm_ppc,5,t,t
5,Kepala Bagian PPC,,,$2y$10$tEinh6ZtHUfxbON0SkquUeadH2pop4eHNAihCi7FwcWBAW5lF/v6S,,,,ka_ppc,4,t,t
1,admin,admin@gmail.com,,$2y$10$XIwhud1tIGlWZnXM/aY3q.TmF/HfkYdjWSiKnkmKJe2ldGJGeE5tW,,,2019-11-03 19:00:12,admin,99,f,t
7,kabag persiapan,,,$2y$10$tEinh6ZtHUfxbON0SkquUeadH2pop4eHNAihCi7FwcWBAW5lF/v6S,,,,kb_persiapan,6,t,t
8,admin persiapan,,,$2y$10$tEinh6ZtHUfxbON0SkquUeadH2pop4eHNAihCi7FwcWBAW5lF/v6S,,,,adm_persiapan,7,t,t
9,kepala bagian dyeing & finishing,,,$2y$10$tEinh6ZtHUfxbON0SkquUeadH2pop4eHNAihCi7FwcWBAW5lF/v6S,,,,kb_dyeing_finishing,8,t,t
10,admin dyeing & finishing,,,$2y$10$tEinh6ZtHUfxbON0SkquUeadH2pop4eHNAihCi7FwcWBAW5lF/v6S,,,,adm_dyeing_finishing,9,t,t
11,kepala bagian printing,,,$2y$10$tEinh6ZtHUfxbON0SkquUeadH2pop4eHNAihCi7FwcWBAW5lF/v6S,,,,kb_printing,10,t,t
12,admin printing,,,$2y$10$tEinh6ZtHUfxbON0SkquUeadH2pop4eHNAihCi7FwcWBAW5lF/v6S,,,,adm_printing,11,t,t
13,engraving,,,$2y$10$tEinh6ZtHUfxbON0SkquUeadH2pop4eHNAihCi7FwcWBAW5lF/v6S,,,,engraving,12,t,t
